codes – Stat_Mid
…
Reshaping the data

# Reshape the data to long format
fs_long <- pivot_longer(fs, cols = -Year, names_to = "Topic", values_to = "Percentage")

print(fs_long)

# A tibble: 54 × 3
    Year Topic            Percentage
   <dbl> <chr>                 <dbl>
 1  1966 Interest                7  
 2  1966 Medicare                0  
 3  1966 Medicaid                0  
 4  1966 Social_Security        15.1
 5  1966 Income_Security         3.8
 6  1966 Other_Mandatory         6.6
 7  1966 Military_Defense       43.9
 8  1966 Other_Domestic         19  
 9  1966 Other_Intl              4.2
10  1975 Interest                7  
# ℹ 44 more rows
…
